TCGA – Blog
…
https://portal.gdc.cancer.gov/

https://www.jingege.wang/2024/02/25/tcga-gdc-data-portal-2-0/

https://www.jingege.wang/2022/07/16/tcgar/

Show the code
library(jsonlite)

json <- jsonlite::fromJSON("data/metadata.cart.2024-07-04.json") |> as_tibble()

json |> select(associated_entities)

# A tibble: 536 × 1
   associated_entities
   <list>             
 1 <df [1 × 4]>       
 2 <df [1 × 4]>       
 3 <df [1 × 4]>       
 4 <df [1 × 4]>       
 5 <df [1 × 4]>       
 6 <df [1 × 4]>       
 7 <df [1 × 4]>       
 8 <df [1 × 4]>       
 9 <df [1 × 4]>       
10 <df [1 × 4]>       
# ℹ 526 more rows
…
